Introdução ao Tidyverse
…
as_tibble(mtcars, rownames = "Modelos")

## # A tibble: 32 x 12
##    Modelos             mpg   cyl  disp    hp  drat    wt  qsec    vs    am  gear  carb
##    <chr>             <dbl> <dbl> <dbl> <dbl> <dbl> <dbl> <dbl> <dbl> <dbl> <dbl> <dbl>
##  1 Mazda RX4          21       6  160    110  3.9   2.62  16.5     0     1     4     4
##  2 Mazda RX4 Wag      21       6  160    110  3.9   2.88  17.0     0     1     4     4
##  3 Datsun 710         22.8     4  108     93  3.85  2.32  18.6     1     1     4     1
##  4 Hornet 4 Drive     21.4     6  258    110  3.08  3.22  19.4     1     0     3     1
##  5 Hornet Sportabout  18.7     8  360    175  3.15  3.44  17.0     0     0     3     2
##  6 Valiant            18.1     6  225    105  2.76  3.46  20.2     1     0     3     1
##  7 Duster 360         14.3     8  360    245  3.21  3.57  15.8     0     0     3     4
##  8 Merc 240D          24.4     4  147.    62  3.69  3.19  20       1     0     4     2
##  9 Merc 230           22.8     4  141.    95  3.92  3.15  22.9     1     0     4     2
## 10 Merc 280           19.2     6  168.   123  3.92  3.44  18.3     1     0     4     4
## # ... with 22 more rows
…
As principais vantagens de se usar o dplyr em detrimento das funções do R base são:

Manipular dados se torna uma tarefa muito mais simples.

O código fica mais intuitivo de ser escrito e mais simples de ser lido.

O pacote dplyr utiliza C e C++ por trás da maioria das funções, o que geralmente torna o código mais eficiente.

É possível trabalhar com diferentes fontes de dados, como bases relacionais (SQL) e data.table.

Agora, vamos avaliar com mais detalhes as principais funções do pacote dplyr usando os dados de starwars.

starwars

## # A tibble: 87 x 13
##    name  height  mass hair_color skin_color eye_color birth_year gender homeworld species films
##    <chr>  <int> <dbl> <chr>      <chr>      <chr>          <dbl> <chr>  <chr>     <chr>   <lis>
##  1 Luke~    172    77 blond      fair       blue            19   male   Tatooine  Human   <chr~
##  2 C-3PO    167    75 <NA>       gold       yellow         112   <NA>   Tatooine  Droid   <chr~
##  3 R2-D2     96    32 <NA>       white, bl~ red             33   <NA>   Naboo     Droid   <chr~
##  4 Dart~    202   136 none       white      yellow          41.9 male   Tatooine  Human   <chr~
##  5 Leia~    150    49 brown      light      brown           19   female Alderaan  Human   <chr~
##  6 Owen~    178   120 brown, gr~ light      blue            52   male   Tatooine  Human   <chr~
##  7 Beru~    165    75 brown      light      blue            47   female Tatooine  Human   <chr~
##  8 R5-D4     97    32 <NA>       white, red red             NA   <NA>   Tatooine  Droid   <chr~
##  9 Bigg~    183    84 black      light      brown           24   male   Tatooine  Human   <chr~
## 10 Obi-~    182    77 auburn, w~ fair       blue-gray       57   male   Stewjon   Human   <chr~
## # ... with 77 more rows, and 2 more variables: vehicles <list>, starships <list>
…
Para fazer várias condições, use os operadores lógicos & e | ou separe filtros entre vírgulas.

starwars %>% 
  filter( height > 150 & mass > 60)

## # A tibble: 42 x 13
##    name  height  mass hair_color skin_color eye_color birth_year gender homeworld species films
##    <chr>  <int> <dbl> <chr>      <chr>      <chr>          <dbl> <chr>  <chr>     <chr>   <lis>
##  1 Luke~    172    77 blond      fair       blue            19   male   Tatooine  Human   <chr~
##  2 C-3PO    167    75 <NA>       gold       yellow         112   <NA>   Tatooine  Droid   <chr~
##  3 Dart~    202   136 none       white      yellow          41.9 male   Tatooine  Human   <chr~
##  4 Owen~    178   120 brown, gr~ light      blue            52   male   Tatooine  Human   <chr~
##  5 Beru~    165    75 brown      light      blue            47   female Tatooine  Human   <chr~
##  6 Bigg~    183    84 black      light      brown           24   male   Tatooine  Human   <chr~
##  7 Obi-~    182    77 auburn, w~ fair       blue-gray       57   male   Stewjon   Human   <chr~
##  8 Anak~    188    84 blond      fair       blue            41.9 male   Tatooine  Human   <chr~
##  9 Chew~    228   112 brown      unknown    blue           200   male   Kashyyyk  Wookiee <chr~
## 10 Han ~    180    80 brown      fair       brown           29   male   Corellia  Human   <chr~
## # ... with 32 more rows, and 2 more variables: vehicles <list>, starships <list>

filter(starwars, height > mean(height, na.rm = T), birth_year > quantile(birth_year, probs = 0.25, na.rm = T))

## # A tibble: 21 x 13
##    name  height  mass hair_color skin_color eye_color birth_year gender homeworld species films
##    <chr>  <int> <dbl> <chr>      <chr>      <chr>          <dbl> <chr>  <chr>     <chr>   <lis>
##  1 Dart~    202   136 none       white      yellow          41.9 male   Tatooine  Human   <chr~
##  2 Owen~    178   120 brown, gr~ light      blue            52   male   Tatooine  Human   <chr~
##  3 Obi-~    182    77 auburn, w~ fair       blue-gray       57   male   Stewjon   Human   <chr~
##  4 Anak~    188    84 blond      fair       blue            41.9 male   Tatooine  Human   <chr~
##  5 Wilh~    180    NA auburn, g~ fair       blue            64   male   Eriadu    Human   <chr~
##  6 Chew~    228   112 brown      unknown    blue           200   male   Kashyyyk  Wookiee <chr~
##  7 Jabb~    175  1358 <NA>       green-tan~ orange         600   herma~ Nal Hutta Hutt    <chr~
##  8 Bossk    190   113 none       green      red             53   male   Trandosha Trando~ <chr~
##  9 Lobot    175    79 none       light      blue            37   male   Bespin    Human   <chr~
## 10 Ackb~    180    83 none       brown mot~ orange          41   male   Mon Cala  Mon Ca~ <chr~
## # ... with 11 more rows, and 2 more variables: vehicles <list>, starships <list>

filter(starwars, skin_color == "light" | !species == "Human")

## # A tibble: 58 x 13
##    name  height  mass hair_color skin_color eye_color birth_year gender homeworld species films
##    <chr>  <int> <dbl> <chr>      <chr>      <chr>          <dbl> <chr>  <chr>     <chr>   <lis>
##  1 C-3PO    167    75 <NA>       gold       yellow           112 <NA>   Tatooine  Droid   <chr~
##  2 R2-D2     96    32 <NA>       white, bl~ red               33 <NA>   Naboo     Droid   <chr~
##  3 Leia~    150    49 brown      light      brown             19 female Alderaan  Human   <chr~
##  4 Owen~    178   120 brown, gr~ light      blue              52 male   Tatooine  Human   <chr~
##  5 Beru~    165    75 brown      light      blue              47 female Tatooine  Human   <chr~
##  6 R5-D4     97    32 <NA>       white, red red               NA <NA>   Tatooine  Droid   <chr~
##  7 Bigg~    183    84 black      light      brown             24 male   Tatooine  Human   <chr~
##  8 Chew~    228   112 brown      unknown    blue             200 male   Kashyyyk  Wookiee <chr~
##  9 Gree~    173    74 <NA>       green      black             44 male   Rodia     Rodian  <chr~
## 10 Jabb~    175  1358 <NA>       green-tan~ orange           600 herma~ Nal Hutta Hutt    <chr~
## # ... with 48 more rows, and 2 more variables: vehicles <list>, starships <list>

Existe algumas ferramentas para criar bons filtros. Como por exemplo o %in%.

starwars %>% 
  filter(species %in% c("Human","Droid"))

## # A tibble: 40 x 13
##    name  height  mass hair_color skin_color eye_color birth_year gender homeworld species films
##    <chr>  <int> <dbl> <chr>      <chr>      <chr>          <dbl> <chr>  <chr>     <chr>   <lis>
##  1 Luke~    172    77 blond      fair       blue            19   male   Tatooine  Human   <chr~
##  2 C-3PO    167    75 <NA>       gold       yellow         112   <NA>   Tatooine  Droid   <chr~
##  3 R2-D2     96    32 <NA>       white, bl~ red             33   <NA>   Naboo     Droid   <chr~
##  4 Dart~    202   136 none       white      yellow          41.9 male   Tatooine  Human   <chr~
##  5 Leia~    150    49 brown      light      brown           19   female Alderaan  Human   <chr~
##  6 Owen~    178   120 brown, gr~ light      blue            52   male   Tatooine  Human   <chr~
##  7 Beru~    165    75 brown      light      blue            47   female Tatooine  Human   <chr~
##  8 R5-D4     97    32 <NA>       white, red red             NA   <NA>   Tatooine  Droid   <chr~
##  9 Bigg~    183    84 black      light      brown           24   male   Tatooine  Human   <chr~
## 10 Obi-~    182    77 auburn, w~ fair       blue-gray       57   male   Stewjon   Human   <chr~
## # ... with 30 more rows, and 2 more variables: vehicles <list>, starships <list>
…
## # A tibble: 2 x 13
##   name  height  mass hair_color skin_color eye_color birth_year gender homeworld species films
##   <chr>  <int> <dbl> <chr>      <chr>      <chr>          <dbl> <chr>  <chr>     <chr>   <lis>
## 1 Chew~    228   112 brown      unknown    blue             200 male   Kashyyyk  Wookiee <chr~
## 2 Yoda      66    17 white      green      brown            896 male   <NA>      Yoda's~ <chr~
## # ... with 2 more variables: vehicles <list>, starships <list>

> Select

A função select() seleciona colunas (variáveis). É possível utilizar nomes, índices, intervalos de variáveis ou utilizar as funções starts_with(x), contains(x), matches(x), one_of(x) para selecionar as variáveis.

starwars %>% 
  select(name, species, gender, birth_year)

## # A tibble: 87 x 4
##    name               species gender birth_year
##    <chr>              <chr>   <chr>       <dbl>
##  1 Luke Skywalker     Human   male         19  
##  2 C-3PO              Droid   <NA>        112  
##  3 R2-D2              Droid   <NA>         33  
##  4 Darth Vader        Human   male         41.9
##  5 Leia Organa        Human   female       19  
##  6 Owen Lars          Human   male         52  
##  7 Beru Whitesun lars Human   female       47  
##  8 R5-D4              Droid   <NA>         NA  
##  9 Biggs Darklighter  Human   male         24  
## 10 Obi-Wan Kenobi     Human   male         57  
## # ... with 77 more rows

starwars %>% 
  select(name, starts_with("eye"))

## # A tibble: 87 x 2
##    name               eye_color
##    <chr>              <chr>    
##  1 Luke Skywalker     blue     
##  2 C-3PO              yellow   
##  3 R2-D2              red      
##  4 Darth Vader        yellow   
##  5 Leia Organa        brown    
##  6 Owen Lars          blue     
##  7 Beru Whitesun lars blue     
##  8 R5-D4              red      
##  9 Biggs Darklighter  brown    
## 10 Obi-Wan Kenobi     blue-gray
## # ... with 77 more rows

starwars %>% 
  select(name, birth_year:species)

## # A tibble: 87 x 5
##    name               birth_year gender homeworld species
##    <chr>                   <dbl> <chr>  <chr>     <chr>  
##  1 Luke Skywalker           19   male   Tatooine  Human  
##  2 C-3PO                   112   <NA>   Tatooine  Droid  
##  3 R2-D2                    33   <NA>   Naboo     Droid  
##  4 Darth Vader              41.9 male   Tatooine  Human  
##  5 Leia Organa              19   female Alderaan  Human  
##  6 Owen Lars                52   male   Tatooine  Human  
##  7 Beru Whitesun lars       47   female Tatooine  Human  
##  8 R5-D4                    NA   <NA>   Tatooine  Droid  
##  9 Biggs Darklighter        24   male   Tatooine  Human  
## 10 Obi-Wan Kenobi           57   male   Stewjon   Human  
## # ... with 77 more rows

starwars %>% 
  select(-films, -vehicles, -starships)

## # A tibble: 87 x 10
##    name           height  mass hair_color   skin_color eye_color birth_year gender homeworld species
##    <chr>           <int> <dbl> <chr>        <chr>      <chr>          <dbl> <chr>  <chr>     <chr>  
##  1 Luke Skywalker    172    77 blond        fair       blue            19   male   Tatooine  Human  
##  2 C-3PO             167    75 <NA>         gold       yellow         112   <NA>   Tatooine  Droid  
##  3 R2-D2              96    32 <NA>         white, bl~ red             33   <NA>   Naboo     Droid  
##  4 Darth Vader       202   136 none         white      yellow          41.9 male   Tatooine  Human  
##  5 Leia Organa       150    49 brown        light      brown           19   female Alderaan  Human  
##  6 Owen Lars         178   120 brown, grey  light      blue            52   male   Tatooine  Human  
##  7 Beru Whitesun~    165    75 brown        light      blue            47   female Tatooine  Human  
##  8 R5-D4              97    32 <NA>         white, red red             NA   <NA>   Tatooine  Droid  
##  9 Biggs Darklig~    183    84 black        light      brown           24   male   Tatooine  Human  
## 10 Obi-Wan Kenobi    182    77 auburn, whi~ fair       blue-gray       57   male   Stewjon   Human  
## # ... with 77 more rows

starwars %>% 
  select(name, contains("color"))

## # A tibble: 87 x 4
##    name               hair_color    skin_color  eye_color
##    <chr>              <chr>         <chr>       <chr>    
##  1 Luke Skywalker     blond         fair        blue     
##  2 C-3PO              <NA>          gold        yellow   
##  3 R2-D2              <NA>          white, blue red      
##  4 Darth Vader        none          white       yellow   
##  5 Leia Organa        brown         light       brown    
##  6 Owen Lars          brown, grey   light       blue     
##  7 Beru Whitesun lars brown         light       blue     
##  8 R5-D4              <NA>          white, red  red      
##  9 Biggs Darklighter  black         light       brown    
## 10 Obi-Wan Kenobi     auburn, white fair        blue-gray
## # ... with 77 more rows

starwars %>% 
  select(name, gender, everything())

## # A tibble: 87 x 13
##    name  gender height  mass hair_color skin_color eye_color birth_year homeworld species films
##    <chr> <chr>   <int> <dbl> <chr>      <chr>      <chr>          <dbl> <chr>     <chr>   <lis>
##  1 Luke~ male      172    77 blond      fair       blue            19   Tatooine  Human   <chr~
##  2 C-3PO <NA>      167    75 <NA>       gold       yellow         112   Tatooine  Droid   <chr~
##  3 R2-D2 <NA>       96    32 <NA>       white, bl~ red             33   Naboo     Droid   <chr~
##  4 Dart~ male      202   136 none       white      yellow          41.9 Tatooine  Human   <chr~
##  5 Leia~ female    150    49 brown      light      brown           19   Alderaan  Human   <chr~
##  6 Owen~ male      178   120 brown, gr~ light      blue            52   Tatooine  Human   <chr~
##  7 Beru~ female    165    75 brown      light      blue            47   Tatooine  Human   <chr~
##  8 R5-D4 <NA>       97    32 <NA>       white, red red             NA   Tatooine  Droid   <chr~
##  9 Bigg~ male      183    84 black      light      brown           24   Tatooine  Human   <chr~
## 10 Obi-~ male      182    77 auburn, w~ fair       blue-gray       57   Stewjon   Human   <chr~
## # ... with 77 more rows, and 2 more variables: vehicles <list>, starships <list>

starwars %>% 
  select_if(~is.list(.)==F)

## # A tibble: 87 x 10
##    name           height  mass hair_color   skin_color eye_color birth_year gender homeworld species
##    <chr>           <int> <dbl> <chr>        <chr>      <chr>          <dbl> <chr>  <chr>     <chr>  
##  1 Luke Skywalker    172    77 blond        fair       blue            19   male   Tatooine  Human  
##  2 C-3PO             167    75 <NA>         gold       yellow         112   <NA>   Tatooine  Droid  
##  3 R2-D2              96    32 <NA>         white, bl~ red             33   <NA>   Naboo     Droid  
##  4 Darth Vader       202   136 none         white      yellow          41.9 male   Tatooine  Human  
##  5 Leia Organa       150    49 brown        light      brown           19   female Alderaan  Human  
##  6 Owen Lars         178   120 brown, grey  light      blue            52   male   Tatooine  Human  
##  7 Beru Whitesun~    165    75 brown        light      blue            47   female Tatooine  Human  
##  8 R5-D4              97    32 <NA>         white, red red             NA   <NA>   Tatooine  Droid  
##  9 Biggs Darklig~    183    84 black        light      brown           24   male   Tatooine  Human  
## 10 Obi-Wan Kenobi    182    77 auburn, whi~ fair       blue-gray       57   male   Stewjon   Human  
## # ... with 77 more rows

> Arrange

A função arrange() ordena a base segundo uma ou mais colunas. O argumento desc= pode ser utilizado para gerar uma ordem decrescente.

starwars %>% 
  arrange(birth_year)

## # A tibble: 87 x 13
##    name  height  mass hair_color skin_color eye_color birth_year gender homeworld species films
##    <chr>  <int> <dbl> <chr>      <chr>      <chr>          <dbl> <chr>  <chr>     <chr>   <lis>
##  1 Wick~     88  20   brown      brown      brown            8   male   Endor     Ewok    <chr~
##  2 IG-88    200 140   none       metal      red             15   none   <NA>      Droid   <chr~
##  3 Luke~    172  77   blond      fair       blue            19   male   Tatooine  Human   <chr~
##  4 Leia~    150  49   brown      light      brown           19   female Alderaan  Human   <chr~
##  5 Wedg~    170  77   brown      fair       hazel           21   male   Corellia  Human   <chr~
##  6 Plo ~    188  80   none       orange     black           22   male   Dorin     Kel Dor <chr~
##  7 Bigg~    183  84   black      light      brown           24   male   Tatooine  Human   <chr~
##  8 Han ~    180  80   brown      fair       brown           29   male   Corellia  Human   <chr~
##  9 Land~    177  79   black      dark       brown           31   male   Socorro   Human   <chr~
## 10 Boba~    183  78.2 black      fair       brown           31.5 male   Kamino    Human   <chr~
## # ... with 77 more rows, and 2 more variables: vehicles <list>, starships <list>

starwars %>% 
  arrange(desc(birth_year))

## # A tibble: 87 x 13
##    name  height  mass hair_color skin_color eye_color birth_year gender homeworld species films
##    <chr>  <int> <dbl> <chr>      <chr>      <chr>          <dbl> <chr>  <chr>     <chr>   <lis>
##  1 Yoda      66    17 white      green      brown            896 male   <NA>      Yoda's~ <chr~
##  2 Jabb~    175  1358 <NA>       green-tan~ orange           600 herma~ Nal Hutta Hutt    <chr~
##  3 Chew~    228   112 brown      unknown    blue             200 male   Kashyyyk  Wookiee <chr~
##  4 C-3PO    167    75 <NA>       gold       yellow           112 <NA>   Tatooine  Droid   <chr~
##  5 Dooku    193    80 white      fair       brown            102 male   Serenno   Human   <chr~
##  6 Qui-~    193    89 brown      fair       blue              92 male   <NA>      Human   <chr~
##  7 Ki-A~    198    82 white      pale       yellow            92 male   Cerea     Cerean  <chr~
##  8 Fini~    170    NA blond      fair       blue              91 male   Coruscant Human   <chr~
##  9 Palp~    170    75 grey       pale       yellow            82 male   Naboo     Human   <chr~
## 10 Clie~    183    NA brown      fair       blue              82 male   Tatooine  Human   <chr~
## # ... with 77 more rows, and 2 more variables: vehicles <list>, starships <list>
…
